<?xml version="1.0" encoding="UTF-8" standalone="no"?>
<svg width="33px" height="26px" viewBox="0 0 33 26" version="1.1" xmlns="http://www.w3.org/2000/svg" xmlns:xlink="http://www.w3.org/1999/xlink" xmlns:sketch="http://www.bohemiancoding.com/sketch/ns">
    <!-- Generator: Sketch 3.1 (8751) - http://www.bohemiancoding.com/sketch -->
    <title>add_survey 2</title>
    <desc>Created with Sketch.</desc>
    <defs></defs>
    <g id="Page-1" stroke="none" stroke-width="1" fill="none" fill-rule="evenodd" sketch:type="MSPage">
        <g id="Shape" sketch:type="MSLayerGroup" transform="translate(7.000000, 2.000000)">
            <path d="M22.1129927,6.26411048 C23.4129927,4.96411048 24.6129927,3.36411048 22.8129927,1.56411048 L22.1129927,0.864110481 C20.3129927,-0.935889519 18.6129927,0.464110481 17.4129927,1.56411048 L14.2129927,4.76411048 C14.2129927,4.76411048 14.1129927,4.86411048 14.1129927,4.96411048 L12.5129927,3.36411048 C12.2129927,3.06411048 11.7129927,3.06411048 11.4129927,3.36411048 L10.0129927,4.76411048 C9.71299274,5.06411048 9.71299274,5.56411048 10.0129927,5.86411048 L11.1129927,6.96411048 L2.11299274,15.9641105 C1.41299274,16.6641105 1.01299274,17.8641105 1.21299274,18.8641105 C1.21299274,18.9641105 1.11299274,19.1641105 1.11299274,19.1641105 L0.71299274,19.5641105 C-0.18700726,20.4641105 -0.28700726,21.9641105 0.71299274,22.9641105 C1.61299274,23.8641105 3.11299274,23.8641105 4.11299274,22.9641105 L4.51299274,22.5641105 C4.61299274,22.4641105 4.81299274,22.4641105 4.91299274,22.4641105 C5.81299274,22.6641105 7.01299274,22.2641105 7.81299274,21.5641105 L16.8129927,12.5641105 L17.9129927,13.6641105 C18.2129927,13.9641105 18.7129927,13.9641105 19.0129927,13.6641105 L20.4129927,12.2641105 C20.7129927,11.9641105 20.7129927,11.4641105 20.4129927,11.1641105 L18.8129927,9.56411048 C18.9129927,9.56411048 18.9129927,9.46411048 19.0129927,9.46411048 L22.1129927,6.26411048 L22.1129927,6.26411048 Z M6.71299274,20.5641105 C6.31299274,20.9641105 5.61299274,21.1641105 5.11299274,21.0641105 C4.61299274,20.9641105 3.91299274,21.1641105 3.51299274,21.5641105 L3.11299274,21.8641105 C2.71299274,22.2641105 2.11299274,22.2641105 1.71299274,21.8641105 C1.31299274,21.4641105 1.41299274,20.8641105 1.71299274,20.4641105 L2.11299274,20.0641105 C2.51299274,19.6641105 2.71299274,18.9641105 2.61299274,18.4641105 C2.51299274,17.9641105 2.71299274,17.2641105 3.11299274,16.8641105 L12.1129927,7.86411048 L15.6129927,11.3641105 L6.71299274,20.5641105 L6.71299274,20.5641105 Z" sketch:type="MSShapeGroup"></path>
        </g>
        <path d="M14.2,8.6 C14.2,8.9 14,9.1 13.7,9.1 L9.1,9.1 L9.1,13.7 C9.1,14 8.9,14.2 8.6,14.2 L5.6,14.2 C5.3,14.2 5.1,14 5.1,13.7 L5.1,9.1 L0.5,9.1 C0.2,9.1 0,8.9 0,8.6 L0,5.6 C0,5.3 0.2,5.1 0.5,5.1 L5.1,5.1 L5.1,0.5 C5.1,0.2 5.3,0 5.6,0 L8.6,0 C8.9,0 9.1,0.2 9.1,0.5 L9.1,5.1 L13.7,5.1 C14,5.1 14.2,5.3 14.2,5.6 L14.2,8.6 L14.2,8.6 Z" id="Shape" fill="#2CA4A5" sketch:type="MSShapeGroup"></path>
        <g id="eyedropper" sketch:type="MSLayerGroup" transform="translate(7.000000, 2.000000)">
            <path d="M22,6.4 C23.3,5.1 24.5,3.5 22.7,1.7 L22,1 C20.2,-0.8 18.5,0.6 17.3,1.7 L14.1,4.9 C14.1,4.9 14,5 14,5.1 L12.4,3.5 C12.1,3.2 11.6,3.2 11.3,3.5 L9.9,4.9 C9.6,5.2 9.6,5.7 9.9,6 L11,7.1 L2,16.1 C1.3,16.8 0.9,18 1.1,19 C1.1,19.1 1,19.3 1,19.3 L0.6,19.7 C-0.3,20.6 -0.4,22.1 0.6,23.1 C1.5,24 3,24 4,23.1 L4.4,22.7 C4.5,22.6 4.7,22.6 4.8,22.6 C5.7,22.8 6.9,22.4 7.7,21.7 L16.7,12.7 L17.8,13.8 C18.1,14.1 18.6,14.1 18.9,13.8 L20.3,12.4 C20.6,12.1 20.6,11.6 20.3,11.3 L18.7,9.7 C18.8,9.7 18.8,9.6 18.9,9.6 L22,6.4 L22,6.4 Z M6.6,20.7 C6.2,21.1 5.5,21.3 5,21.2 C4.5,21.1 3.8,21.3 3.4,21.7 L3,22 C2.6,22.4 2,22.4 1.6,22 C1.2,21.6 1.3,21 1.6,20.6 L2,20.2 C2.4,19.8 2.6,19.1 2.5,18.6 C2.4,18.1 2.6,17.4 3,17 L12,8 L15.5,11.5 L6.6,20.7 L6.6,20.7 Z" id="Shape" fill="#2CA4A5" sketch:type="MSShapeGroup"></path>
            <path d="M3.1,17.1 C2.7,17.5 2.5,18.2 2.6,18.7 C2.7,19.2 2.5,19.9 2.1,20.3 L1.7,20.7 C1.3,21.1 1.3,21.7 1.7,22.1 C2.1,22.5 2.7,22.4 3.1,22.1 L3.5,21.7 C3.9,21.3 4.6,21.1 5.1,21.2 C5.6,21.3 6.3,21.1 6.7,20.7 L10.4,17 L3.2,17 L3.1,17.1 Z" id="Shape" opacity="0.3" sketch:type="MSShapeGroup"></path>
        </g>
    </g>
</svg>